<?xml version="1.0" encoding="utf-8"?>
<!-- Generator: Adobe Illustrator 16.0.0, SVG Export Plug-In . SVG Version: 6.00 Build 0)  -->
<!DOCTYPE svg PUBLIC "-//W3C//DTD SVG 1.1//EN" "http://www.w3.org/Graphics/SVG/1.1/DTD/svg11.dtd">
<svg version="1.1" xmlns="http://www.w3.org/2000/svg" xmlns:xlink="http://www.w3.org/1999/xlink" x="0px" y="0px" width="110px"
	 height="550px" viewBox="0 0 110 550" style="enable-background:new 0 0 110 550;" xml:space="preserve">
<style type="text/css">
<![CDATA[
	.st0{fill:#7A6A1E;}
	.st1{fill:#7B6349;}
	.st2{fill:#7B7037;}
	.st3{opacity:0.1;fill:#010202;}
	.st4{fill:#7D7589;}
	.st5{fill:#E9E7E5;}
	.st6{fill:#B3DFF1;}
	.st7{fill:#EBEADD;}
	.st8{fill:#8BA7AD;}
	.st9{fill:#BECED2;}
	.st10{fill:#F1CE39;}
	.st11{fill:none;stroke:#009640;stroke-width:0.1;}
	.st12{fill:#F4DA6D;}
	.st13{fill:#F5DA6B;}
	.st14{fill:#F6E28F;}
	.st15{fill:#918CB7;}
	.st16{opacity:0.12;fill:#363439;}
	.st17{fill:#95BD2D;}
	.st18{fill:#C6C4B9;}
	.st19{fill:#FFFFFF;}
	.st20{fill:none;}
	.st21{opacity:0.14;fill:#FFFFFF;}
	.st22{display:inline;}
	.st23{opacity:0.2;fill:#010202;}
	.st24{display:inline;fill:none;}
	.st25{fill:#363439;}
	.st26{fill:#3E62AB;}
	.st27{display:none;}
	.st28{fill:#A39FBF;}
	.st29{fill:#A7593C;}
	.st30{fill:#A8BDC2;}
	.st31{fill:#DD7046;}
	.st32{fill:#DFDCDA;}
]]>
</style>
<g id="Layer_1" class="st27">
	<rect class="st24" width="110" height="110"/>
	<rect y="110" class="st24" width="110" height="110"/>
	<rect y="220" class="st24" width="110" height="110"/>
	<rect y="330" class="st24" width="110" height="110"/>
	<rect y="440" class="st24" width="110" height="110"/>
	<rect y="550" class="st24" width="110" height="110"/>
	<g class="st22">
		<line class="st11" x1="110" y1="150" x2="110" y2="1010"/>
		<line class="st11" x1="0" y1="150" x2="0" y2="1010"/>
		<line class="st11" x1="-100" y1="660" x2="210" y2="660"/>
		<line class="st11" x1="-100" y1="550" x2="210" y2="550"/>
		<line class="st11" x1="-100" y1="550" x2="210" y2="550"/>
		<line class="st11" x1="-100" y1="440" x2="210" y2="440"/>
		<line class="st11" x1="-100" y1="440" x2="210" y2="440"/>
		<line class="st11" x1="-100" y1="330" x2="210" y2="330"/>
		<line class="st11" x1="-100" y1="330" x2="210" y2="330"/>
		<line class="st11" x1="-100" y1="220" x2="210" y2="220"/>
		<line class="st11" x1="-100" y1="220" x2="210" y2="220"/>
		<line class="st11" x1="-100" y1="110" x2="210" y2="110"/>
		<line class="st11" x1="-100" y1="110" x2="210" y2="110"/>
		<line class="st11" x1="-100" y1="0" x2="210" y2="0"/>
	</g>
</g>
<g id="Layer_2">
	<g>
		<path id="mondo" class="st26" d="M105,60.1c0,27.6-22.4,49.9-50,49.9C27.4,110,5,87.7,5,60.1c0-27.6,22.4-49.9,50-49.9
			C82.6,10.2,105,32.5,105,60.1z"/>
		<path class="st17" d="M27.1,23.2h3.7L19.4,37.6l-0.9,8.6l7.6,8.4l8.7,2.7l8.4,6.5l5.7-2.7v10.4l-2.5,8l11.3,10.5l-1.3,8.5l0.1,5.7
			l3.3,2l6.7-4.8L85.1,84l4.4-7.7L87,72.8h-6.2l-6.1-8.2L68.1,61L44,59.5l-5.7-10.6l1.9-3.5l10,1.8L63.9,31h8.2l1.5-2.9l3.2,2.3
			l-3.5-7.2l-9.3-2l-0.6,2.4l-3.9,1.9l-4.1-4.3l5.3-1.8H66l0.3,1.4h5.5l-5.1-2.7l-5.6-0.9l-3.3,0.9H38L27.1,23.2z"/>
		<path class="st17" d="M83.3,26.8l11.2,16.7l1.9,24.2l3.2-2.3V48.8l-3.3-7.1v-2.5L88.7,30L83.3,26.8z"/>
		<path class="st23" d="M55,60.1H5c0.1,27.5,22.4,49.7,50,49.7V60.1"/>
		<path class="st21" d="M55,10.2c-12.8,0-25.6,4.9-35.3,14.6l70.7,70.6c19.5-19.5,19.5-51.1,0-70.6C80.6,15.1,67.8,10.2,55,10.2"/>
	</g>
	<g>
		<path class="st5" d="M44.2,219.9H14.3v-21.2h29.8V219.9z M96.3,173.3H66.4v46.6h29.8V173.3z"/>
		<path class="st32" d="M96.3,166v7.3l-82,46.6V166l41-20.5L96.3,166 M96.3,132.1H77.6v17.7l18.6,10.7V132.1z"/>
		<path class="st1" d="M66.3,190.2c-0.9-3.3-5.5-5.8-11-5.8c-5.5,0-10.1,2.5-11,5.8h-0.2v25.8h22.3v-25.8H66.3z"/>
		<path class="st29" d="M105,165.5v12.9l-8.7-5.1v-12.9L105,165.5z M57.1,138h-1.8V150h0.9l21.4,12.4v-12.7L57.1,138z"/>
		<path class="st31" d="M55.3,138V150h-1L5,178.8v-13L53.4,138H55.3z M77.6,149.8v12.7l18.6,10.8v-12.9L77.6,149.8z"/>
	</g>
	<g>
		<g>
			<path class="st15" d="M105,323c0,3.9-3.1,7-7,7H12c-3.9,0-7-3.1-7-7v-86c0-3.9,3.1-7,7-7h86c3.9,0,7,3.1,7,7V323z"/>
			<path class="st28" d="M61,280.1l-25.1,25.1c-0.6,0.6-1.4,0.9-2.1,0.9s-1.5-0.3-2.1-0.9l-8.9-8.9L5,314.1v8.9c0,3.9,3.1,7,7,7h86
				c3.9,0,7-3.1,7-7v-40.9h-8l-14.9,14.9c-0.6,0.6-1.3,0.8-2.1,0.8s-1.6-0.3-2.1-0.8L61,280.1"/>
			<path class="st16" d="M35,230h-3v100h3V230"/>
			<path class="st16" d="M79,230h-3v100h3V230"/>
			<path class="st19" d="M105,272h-9.3c-0.8,0-1.6,0.3-2.1,0.9L80,286.5l-16.8-16.8c-1.2-1.2-3.1-1.2-4.2,0l-25.1,25.1l-8.9-8.9
				c-1.2-1.2-3.1-1.2-4.2,0L5,301.4v8.5l17.7-17.7l8.9,8.9c1.2,1.2,3.1,1.2,4.2,0L61,276l16.8,16.8c1.1,1.1,3.1,1.1,4.2,0L97,278h8
				V272z"/>
			<path class="st6" d="M69,273c0,4.4-3.6,8-8,8c-4.4,0-8-3.6-8-8c0-4.4,3.6-8,8-8C65.4,265,69,268.6,69,273z"/>
			<path class="st25" d="M76,238H46v20h11l4,4l4-4h11V238z"/>
		</g>
		<path class="st20" d="M61.5,244.3v1.2l-3.5,7.2H56l3.5-6.8v0h-3.9v-1.6H61.5z"/>
		<path class="st20" d="M65.5,252.7v-2h-3.7v-1.3l3.2-5.1h2.4v5h1v1.5h-1v2H65.5z M65.5,249.2v-1.9c0-0.5,0-1,0.1-1.6h0
			c-0.3,0.5-0.5,1-0.8,1.6l-1.1,1.8l0,0H65.5z"/>
		<path class="st19" d="M61.5,244.3v1.2l-3.5,7.2H56l3.5-6.8v0h-3.9v-1.6H61.5z"/>
		<path class="st19" d="M65.5,252.7v-2h-3.7v-1.3l3.2-5.1h2.4v5h1v1.5h-1v2H65.5z M65.5,249.2v-1.9c0-0.5,0-1,0.1-1.6h0
			c-0.3,0.5-0.5,1-0.8,1.6l-1.1,1.8l0,0H65.5z"/>
	</g>
	<g>
		<path class="st7" d="M105.6,390c0,27.6-22.4,50-50,50c-27.6,0-50-22.4-50-50c0-27.6,22.4-50,50-50C83.2,340,105.6,362.4,105.6,390
			z"/>
		<path class="st18" d="M55.6,340c-27.6,0-50,22.4-50,50s22.4,50,50,50c27.6,0,50-22.4,50-50c0-1.4-0.1-2.8-0.2-4.2
			c-1.6,22-20,39.4-42.4,39.4c-23.5,0-42.5-19-42.5-42.5c0-22.4,17.4-40.8,39.4-42.4C58.4,340.1,57,340,55.6,340"/>
		<path class="st3" d="M57.4,344.4h-3.7v42.3l-33.5-20.3l-1.9,3.2L52,390l-34.6,20.4l1.9,3.2l34.5-20.3v42.4h3.7v-42.3L91,413.6
			l1.9-3.2L59.2,390l34.6-20.4l-1.9-3.2l-34.5,20.3V344.4"/>
		<path class="st4" d="M70.9,342.4c-4.8-1.6-10-2.4-15.3-2.4c-5.3,0-10.5,0.8-15.3,2.4l15.3,8.8L70.9,342.4z"/>
		<path class="st4" d="M40.1,437.6c4.9,1.6,10.1,2.4,15.4,2.4s10.6-0.9,15.4-2.4l-15.4-8.9L40.1,437.6z"/>
		<path class="st4" d="M22.2,370.5v-1v-16.8c-7.8,7-13.4,16.4-15.6,27l15.6-9V370.5z"/>
		<path class="st4" d="M88.9,370.8l15.6,9c-2.2-10.6-7.8-20-15.6-27v14v3.7V370.8z"/>
		<path class="st4" d="M88.9,409.4v4.2v13.6c7.8-7,13.4-16.4,15.6-27l-15.6,9V409.4z"/>
		<path class="st4" d="M22.2,409.3l-15.6-9c2.2,10.6,7.8,20,15.6,27v-8.2v-9.6V409.3z"/>
		<path class="st4" d="M55.6,370.5l-16.7,9.6v0.3v2.3v9.8v7.1v0.2l16.7,9.6l16.7-9.6v-0.2v-4.2v-13.1v-2v-0.3L55.6,370.5z"/>
	</g>
	<g>
		<path class="st13" d="M70.4,454.2c-4.5-2.7-9.8-4.2-15.4-4.2c-16.6,0-30.1,13.5-30.1,30.1c0,0.2,0,0.5,0,0.7c0,0.2,0,0.5,0,0.7
			c0,7.7,2.9,14.8,7.7,20.1h0c0,0,0,0,0,0c0.7,0.8,1.4,1.5,2.2,2.2c5.4,6.4,6.3,16.1,6.3,16.1l2.6,2.4h6.8h2l-8.9-23.1L70.4,454.2z"
			/>
		<path class="st10" d="M85,480.8c0-0.2,0-0.5,0-0.7c0-11-5.9-20.6-14.7-25.8l-26.6,45l8.9,23.1h6.6h6.8l2.6-2.4c0,0,1-9.7,6.4-16.1
			c0.8-0.7,1.5-1.4,2.2-2.2c0,0,0,0,0,0h0c4.8-5.3,7.7-12.4,7.7-20.1C85.1,481.2,85.1,481,85,480.8z"/>
		<path class="st14" d="M55,465c-8.3,0-15,6.7-15,15c0,5.5,3,10.4,7.5,13l15.3-25.9C60.5,465.8,57.8,465,55,465z"/>
		<path class="st12" d="M62.7,467.2L47.4,493c2.2,1.3,4.8,2,7.6,2c8.3,0,15-6.7,15-15C70,474.6,67.1,469.8,62.7,467.2z"/>
		<rect x="43.9" y="522.3" class="st2" width="8.9" height="2.6"/>
		<rect x="52.7" y="522.3" class="st0" width="13.4" height="2.6"/>
		<rect x="43.9" y="529" class="st9" width="8.9" height="2.8"/>
		<rect x="52.7" y="529" class="st30" width="13.4" height="2.8"/>
		<rect x="43.9" y="534.7" class="st9" width="8.9" height="2.7"/>
		<rect x="52.7" y="534.7" class="st30" width="13.4" height="2.7"/>
		<rect x="43.9" y="537.4" class="st30" width="8.9" height="2.8"/>
		<rect x="52.7" y="537.4" class="st8" width="13.4" height="2.8"/>
		<polygon class="st30" points="45.4,543.2 52.7,549.9 52.7,543.2 		"/>
		<polygon class="st8" points="52.7,549.9 52.8,550 57.2,550 64.6,543.2 52.7,543.2 		"/>
		<polygon class="st9" points="52.7,540.2 43.9,540.2 43.9,541.8 45.4,543.2 52.7,543.2 		"/>
		<polygon class="st30" points="52.7,543.2 64.6,543.2 66.1,541.8 66.1,540.2 52.7,540.2 		"/>
		<rect x="43.9" y="531.8" class="st30" width="8.9" height="2.9"/>
		<rect x="52.7" y="531.8" class="st8" width="13.4" height="2.9"/>
		<rect x="43.9" y="524.9" class="st30" width="8.9" height="4.1"/>
		<rect x="52.7" y="524.9" class="st8" width="13.4" height="4.1"/>
	</g>
</g>
</svg>
