<?xml version="1.0" encoding="utf-8"?>
<!-- Generator: Adobe Illustrator 16.0.0, SVG Export Plug-In . SVG Version: 6.00 Build 0)  -->
<!DOCTYPE svg PUBLIC "-//W3C//DTD SVG 1.1//EN" "http://www.w3.org/Graphics/SVG/1.1/DTD/svg11.dtd">
<svg version="1.1" id="Layer_1" xmlns="http://www.w3.org/2000/svg" xmlns:xlink="http://www.w3.org/1999/xlink" x="0px" y="0px"
	 width="390px" height="230px" viewBox="-2.323 -2.469 390 230" enable-background="new -2.323 -2.469 390 230"
	 xml:space="preserve">
<g>
	<circle fill="#E74C3C" cx="276.552" cy="110.865" r="7.5"/>
	<circle fill="none" stroke="#C0392B" stroke-width="0.5" stroke-miterlimit="10" cx="276.552" cy="110.865" r="46.875"/>
	<circle fill="none" stroke="#C0392B" stroke-width="0.5" stroke-miterlimit="10" cx="274.885" cy="112.531" r="112.188"/>
	<g>
		<path fill="#7F8C8D" d="M10.243,108.545c0,0.106-0.101,0.16-0.302,0.16c-0.09,0-0.146-0.04-0.168-0.118
			c-0.241-0.79-0.585-1.348-1.033-1.676c-0.448-0.328-1.112-0.492-1.991-0.492h-0.79c-0.274,0-0.462,0.045-0.562,0.134
			c-0.101,0.09-0.151,0.258-0.151,0.504v8.526c0,0.387,0.049,0.659,0.147,0.818c0.098,0.16,0.271,0.286,0.521,0.379
			c0.249,0.092,0.606,0.166,1.071,0.223c0.089,0.011,0.134,0.086,0.134,0.227c0,0.156-0.045,0.234-0.134,0.234
			c-0.375,0-0.823-0.016-1.344-0.05c-0.494-0.034-0.907-0.05-1.239-0.05c-0.343,0-0.765,0.016-1.264,0.05
			c-0.521,0.034-0.969,0.05-1.344,0.05c-0.09,0-0.135-0.078-0.135-0.234c0-0.141,0.045-0.216,0.135-0.227
			c0.677-0.078,1.138-0.205,1.381-0.379c0.244-0.173,0.366-0.52,0.366-1.041v-8.526c0-0.247-0.05-0.415-0.151-0.504
			c-0.101-0.089-0.291-0.134-0.571-0.134H2.162c-0.79,0-1.506,0.2-2.15,0.601s-1.064,0.92-1.26,1.558
			c-0.028,0.084-0.09,0.126-0.185,0.126c-0.191,0-0.286-0.062-0.286-0.185c0.313-0.846,0.61-1.803,0.89-2.873
			c0.762,0.157,2.505,0.235,5.229,0.235c2.796,0,4.576-0.078,5.338-0.235C9.817,106.375,9.985,107.341,10.243,108.545z"/>
		<path fill="#7F8C8D" d="M21.642,117.231c0,0.156-0.045,0.234-0.135,0.234c-0.387,0-0.824-0.016-1.312-0.05
			c-0.42-0.034-0.779-0.05-1.076-0.05c-0.342,0-0.765,0.016-1.27,0.05c-0.532,0.034-0.986,0.05-1.361,0.05
			c-0.089,0-0.134-0.076-0.134-0.23s0.034-0.23,0.101-0.23c0.499-0.023,0.857-0.089,1.075-0.199
			c0.219-0.109,0.328-0.279,0.328-0.511c0-0.146-0.056-0.38-0.168-0.702l-0.957-2.813h-3.449l-0.961,2.604
			c-0.123,0.349-0.185,0.619-0.185,0.811c0,0.495,0.454,0.766,1.361,0.811c0.067,0,0.101,0.076,0.101,0.23s-0.045,0.23-0.134,0.23
			c-0.336,0-0.708-0.016-1.117-0.05c-0.386-0.034-0.73-0.05-1.032-0.05c-0.241,0-0.543,0.016-0.906,0.05
			c-0.38,0.034-0.705,0.05-0.974,0.05c-0.084,0-0.126-0.069-0.126-0.209c0-0.157,0.064-0.241,0.193-0.252
			c0.465-0.045,0.833-0.174,1.104-0.387s0.553-0.646,0.844-1.303l3.931-9.651c0.034-0.089,0.112-0.134,0.235-0.134
			c0.134,0,0.218,0.042,0.252,0.126l3.469,9.659c0.196,0.544,0.46,0.944,0.794,1.201c0.333,0.258,0.78,0.421,1.34,0.488
			C21.586,117.015,21.642,117.09,21.642,117.231z M16.549,112.241l-1.475-4.281l-1.589,4.281H16.549z"/>
		<path fill="#7F8C8D" d="M34.905,117.231c0,0.156-0.045,0.234-0.134,0.234c-0.375,0-0.823-0.016-1.344-0.05
			c-0.498-0.034-0.918-0.05-1.26-0.05c-0.331,0-0.787,0.016-1.369,0.05c-0.61,0.034-1.104,0.05-1.479,0.05
			c-0.089,0-0.134-0.078-0.134-0.234c0-0.141,0.039-0.216,0.118-0.227c0.756-0.09,1.134-0.271,1.134-0.547
			c0-0.156-0.123-0.357-0.37-0.604l-3.334-3.394c-0.18-0.179-0.335-0.296-0.466-0.353c-0.132-0.056-0.312-0.084-0.542-0.084v3.562
			c0,0.387,0.049,0.659,0.147,0.818c0.098,0.16,0.271,0.286,0.521,0.379c0.249,0.092,0.606,0.166,1.071,0.223
			c0.095,0.011,0.143,0.086,0.143,0.227c0,0.156-0.045,0.234-0.135,0.234c-0.375,0-0.823-0.016-1.344-0.05
			c-0.5-0.034-0.921-0.05-1.264-0.05c-0.338,0-0.753,0.016-1.248,0.05c-0.521,0.034-0.969,0.05-1.344,0.05
			c-0.09,0-0.135-0.078-0.135-0.234c0-0.141,0.045-0.216,0.135-0.227c0.677-0.078,1.138-0.205,1.382-0.379
			c0.243-0.174,0.365-0.521,0.365-1.042v-7.911c0-0.393-0.049-0.668-0.147-0.828c-0.098-0.16-0.271-0.286-0.517-0.378
			c-0.247-0.092-0.608-0.167-1.083-0.223c-0.09,0-0.135-0.077-0.135-0.231s0.045-0.231,0.135-0.231c0.375,0,0.823,0.017,1.344,0.05
			c0.494,0.034,0.91,0.05,1.248,0.05c0.343,0,0.765-0.017,1.264-0.05c0.521-0.034,0.969-0.05,1.344-0.05
			c0.09,0,0.135,0.077,0.135,0.231s-0.045,0.231-0.135,0.231c-0.476,0.056-0.837,0.13-1.083,0.223
			c-0.247,0.092-0.418,0.218-0.517,0.378c-0.098,0.16-0.147,0.436-0.147,0.829v3.812c0.218,0,0.395-0.028,0.529-0.084
			s0.294-0.174,0.479-0.353l3.688-3.637c0.302-0.288,0.454-0.496,0.454-0.626c0-0.152-0.072-0.267-0.214-0.343
			s-0.43-0.142-0.861-0.199c-0.09,0-0.135-0.077-0.135-0.231s0.051-0.231,0.151-0.231c0.263,0,0.61,0.017,1.042,0.05
			c0.459,0.034,0.84,0.05,1.143,0.05s0.638-0.02,1.008-0.059c0.308-0.028,0.571-0.042,0.79-0.042c0.079,0,0.118,0.077,0.118,0.231
			s-0.044,0.231-0.134,0.231c-0.537,0.068-0.96,0.178-1.268,0.33c-0.308,0.152-0.677,0.434-1.108,0.846l-3.839,3.646l4.762,4.846
			c0.332,0.345,0.659,0.594,0.982,0.747c0.323,0.152,0.805,0.268,1.445,0.346C34.854,117.015,34.905,117.09,34.905,117.231z"/>
		<path fill="#7F8C8D" d="M41.357,117.231c0,0.156-0.045,0.234-0.135,0.234c-0.375,0-0.82-0.016-1.335-0.05
			c-0.493-0.034-0.91-0.05-1.251-0.05c-0.342,0-0.759,0.016-1.251,0.05c-0.521,0.034-0.972,0.05-1.353,0.05
			c-0.09,0-0.134-0.078-0.134-0.234c0-0.141,0.044-0.216,0.134-0.227c0.677-0.078,1.138-0.205,1.382-0.379s0.365-0.521,0.365-1.042
			v-7.911c0-0.393-0.049-0.668-0.147-0.828s-0.27-0.286-0.517-0.378c-0.247-0.092-0.608-0.167-1.083-0.223
			c-0.09,0-0.134-0.077-0.134-0.231s0.044-0.231,0.134-0.231c0.381,0,0.832,0.017,1.353,0.05c0.493,0.034,0.91,0.05,1.251,0.05
			c0.341,0,0.759-0.017,1.251-0.05c0.515-0.034,0.96-0.05,1.335-0.05c0.09,0,0.135,0.077,0.135,0.231s-0.045,0.231-0.135,0.231
			c-0.47,0.056-0.829,0.13-1.075,0.223c-0.246,0.093-0.417,0.217-0.512,0.374c-0.095,0.157-0.143,0.435-0.143,0.833v7.911
			c0,0.387,0.047,0.659,0.143,0.819s0.265,0.286,0.508,0.379c0.244,0.092,0.601,0.166,1.071,0.223
			C41.309,117.015,41.357,117.09,41.357,117.231z"/>
		<path fill="#7F8C8D" d="M56.753,106.016c0,0.14-0.044,0.216-0.134,0.227c-0.7,0.079-1.18,0.208-1.44,0.387
			c-0.26,0.18-0.396,0.525-0.407,1.035l-0.185,9.901c0,0.111-0.067,0.168-0.202,0.168c-0.067,0-0.157-0.045-0.269-0.135
			l-8.661-9.786l-0.118,7.77c-0.005,0.045-0.008,0.087-0.008,0.126c0,0.426,0.134,0.727,0.403,0.903
			c0.269,0.176,0.753,0.307,1.453,0.391c0.089,0.011,0.134,0.086,0.134,0.227c0,0.156-0.045,0.234-0.134,0.234
			c-0.291,0-0.692-0.016-1.201-0.05c-0.476-0.034-0.843-0.05-1.101-0.05c-0.28,0-0.658,0.016-1.134,0.05
			c-0.459,0.034-0.815,0.05-1.067,0.05c-0.089,0-0.134-0.078-0.134-0.234c0-0.141,0.05-0.216,0.151-0.227
			c0.694-0.084,1.17-0.215,1.428-0.391c0.257-0.178,0.395-0.521,0.412-1.03l0.294-7.911v-0.076c0-0.454-0.131-0.771-0.395-0.95
			c-0.264-0.18-0.753-0.314-1.47-0.404c-0.079,0-0.118-0.077-0.118-0.231s0.045-0.231,0.134-0.231c0.196,0,0.471,0.017,0.823,0.05
			c0.314,0.034,0.549,0.05,0.706,0.05c0.196,0,0.431-0.017,0.706-0.05c0.28-0.034,0.521-0.05,0.723-0.05l8.089,9.047v-7.163
			c0-0.477-0.136-0.812-0.408-1.006c-0.271-0.193-0.774-0.332-1.508-0.417c-0.089-0.011-0.134-0.087-0.134-0.227
			c0-0.156,0.045-0.235,0.134-0.235c0.303,0,0.706,0.017,1.21,0.05c0.47,0.034,0.834,0.05,1.092,0.05c0.28,0,0.658-0.017,1.134-0.05
			c0.459-0.034,0.815-0.05,1.067-0.05C56.709,105.781,56.753,105.86,56.753,106.016z"/>
		<path fill="#7F8C8D" d="M70.361,112.308c0,0.14-0.044,0.215-0.134,0.227c-0.674,0.079-1.133,0.205-1.375,0.378
			c-0.243,0.173-0.364,0.521-0.364,1.042v0.99c0,0.863,0.062,1.457,0.185,1.781c-0.745,0.297-1.549,0.539-2.412,0.727
			c-0.863,0.188-1.625,0.281-2.287,0.281c-1.278,0-2.399-0.252-3.363-0.756s-1.715-1.225-2.253-2.163s-0.807-1.981-0.807-3.129
			c0-1.143,0.292-2.191,0.875-3.146c0.583-0.955,1.387-1.695,2.413-2.222c1.025-0.526,2.188-0.79,3.489-0.79
			c0.504,0,1.182,0.089,2.034,0.269c0.751,0.157,1.326,0.235,1.724,0.235c0.072,0.784,0.201,1.736,0.386,2.856
			c0,0.09-0.089,0.134-0.269,0.134c-0.118,0-0.188-0.044-0.21-0.134c-0.494-1.882-1.805-2.822-3.935-2.822
			c-1.317,0-2.423,0.543-3.317,1.629s-1.341,2.417-1.341,3.99c0,1.528,0.442,2.829,1.327,3.901s1.966,1.609,3.243,1.609
			c1.875,0,2.814-0.466,2.814-1.397v-2.222c0-0.309-0.148-0.529-0.445-0.661c-0.297-0.132-1.008-0.254-2.134-0.366
			c-0.089,0-0.134-0.083-0.134-0.248c0-0.154,0.045-0.231,0.134-0.231c0.375,0,0.93,0.014,1.663,0.042
			c0.706,0.028,1.229,0.042,1.571,0.042c0.336,0,0.781-0.014,1.336-0.042c0.593-0.028,1.078-0.042,1.453-0.042
			C70.316,112.073,70.361,112.152,70.361,112.308z"/>
		<path fill="#7F8C8D" d="M86.567,109.209c0,0.985-0.379,1.813-1.137,2.482c-0.758,0.669-1.696,1.004-2.814,1.004
			c-0.671,0-1.331-0.028-1.98-0.084v2.974c0,0.393,0.049,0.666,0.147,0.823c0.098,0.157,0.269,0.281,0.513,0.374
			c0.244,0.092,0.601,0.166,1.071,0.223c0.09,0.011,0.134,0.086,0.134,0.227c0,0.156-0.044,0.234-0.134,0.234
			c-0.375,0-0.82-0.016-1.335-0.05c-0.493-0.034-0.91-0.05-1.251-0.05c-0.342,0-0.762,0.016-1.26,0.05
			c-0.521,0.034-0.969,0.05-1.344,0.05c-0.09,0-0.135-0.078-0.135-0.234c0-0.141,0.045-0.216,0.135-0.227
			c0.677-0.078,1.138-0.205,1.382-0.379c0.243-0.174,0.365-0.521,0.365-1.042v-7.911c0-0.393-0.049-0.668-0.147-0.828
			c-0.098-0.16-0.271-0.286-0.517-0.378c-0.247-0.092-0.608-0.167-1.083-0.223c-0.09,0-0.135-0.077-0.135-0.231
			s0.045-0.231,0.135-0.231c0.375,0,0.823,0.017,1.344,0.05c0.498,0.034,0.918,0.05,1.259,0.05s0.758-0.017,1.25-0.05
			c0.515-0.034,0.959-0.05,1.334-0.05c1.376,0,2.421,0.291,3.134,0.874C86.21,107.238,86.567,108.089,86.567,109.209z
			 M84.711,109.208c0-0.898-0.22-1.601-0.66-2.106c-0.439-0.505-1.023-0.758-1.751-0.758c-0.437,0-0.774,0.034-1.012,0.101
			c-0.238,0.068-0.406,0.177-0.504,0.329c-0.098,0.152-0.147,0.452-0.147,0.901v3.867c0,0.241,0.076,0.403,0.227,0.484
			c0.151,0.081,0.479,0.122,0.983,0.122c0.913,0,1.618-0.261,2.117-0.784C84.461,110.843,84.711,110.124,84.711,109.208z"/>
		<path fill="#7F8C8D" d="M100.217,111.687c0,1.774-0.571,3.228-1.714,4.354c-1.142,1.129-2.635,1.693-4.477,1.693
			c-1.843,0-3.333-0.564-4.473-1.693c-1.14-1.127-1.709-2.58-1.709-4.354c0-1.781,0.574-3.252,1.722-4.415
			c1.148-1.162,2.635-1.743,4.46-1.743c1.831,0,3.321,0.581,4.469,1.743C99.643,108.434,100.217,109.906,100.217,111.687z
			 M98.369,111.687c0-1.652-0.399-3.002-1.197-4.049c-0.798-1.047-1.847-1.571-3.146-1.571c-1.305,0-2.354,0.523-3.146,1.571
			c-0.792,1.047-1.188,2.397-1.188,4.049c0,1.641,0.394,2.97,1.18,3.985c0.787,1.017,1.838,1.525,3.154,1.525
			c1.311,0,2.362-0.509,3.154-1.525C97.972,114.656,98.369,113.327,98.369,111.687z"/>
		<path fill="#7F8C8D" d="M111.305,114.375c-0.263,0.984-0.471,2.016-0.622,3.09c-2.145-0.066-3.671-0.1-4.578-0.1
			c-0.896,0-2.402,0.033-4.519,0.1c-0.09,0-0.135-0.078-0.135-0.234c0-0.141,0.045-0.216,0.135-0.227
			c0.677-0.078,1.138-0.205,1.382-0.379c0.243-0.174,0.365-0.521,0.365-1.042v-7.911c0-0.393-0.049-0.668-0.147-0.828
			c-0.098-0.16-0.271-0.286-0.517-0.378c-0.247-0.092-0.608-0.167-1.083-0.223c-0.09,0-0.135-0.077-0.135-0.231
			s0.045-0.231,0.135-0.231c0.375,0,0.823,0.017,1.344,0.05c0.499,0.034,0.918,0.05,1.26,0.05c0.341,0,0.759-0.017,1.251-0.05
			c0.515-0.034,0.96-0.05,1.335-0.05c0.09,0,0.134,0.077,0.134,0.231s-0.044,0.231-0.134,0.231c-0.47,0.056-0.829,0.13-1.075,0.223
			c-0.247,0.093-0.417,0.217-0.512,0.374c-0.095,0.157-0.143,0.435-0.143,0.833v8.163c0,0.661,0.325,0.992,0.975,0.992h1.663
			c0.689,0,1.271-0.184,1.747-0.55c0.476-0.367,0.946-1.052,1.412-2.055c0.022-0.045,0.075-0.066,0.159-0.066
			c0.073,0,0.142,0.021,0.206,0.066S111.305,114.319,111.305,114.375z"/>
		<path fill="#7F8C8D" d="M117.798,117.231c0,0.156-0.045,0.234-0.135,0.234c-0.375,0-0.82-0.016-1.335-0.05
			c-0.493-0.034-0.91-0.05-1.251-0.05c-0.342,0-0.759,0.016-1.251,0.05c-0.521,0.034-0.972,0.05-1.353,0.05
			c-0.09,0-0.134-0.078-0.134-0.234c0-0.141,0.044-0.216,0.134-0.227c0.677-0.078,1.138-0.205,1.382-0.379s0.365-0.521,0.365-1.042
			v-7.911c0-0.393-0.049-0.668-0.147-0.828s-0.27-0.286-0.517-0.378c-0.247-0.092-0.608-0.167-1.083-0.223
			c-0.09,0-0.134-0.077-0.134-0.231s0.044-0.231,0.134-0.231c0.381,0,0.832,0.017,1.353,0.05c0.493,0.034,0.91,0.05,1.251,0.05
			c0.341,0,0.759-0.017,1.251-0.05c0.515-0.034,0.96-0.05,1.335-0.05c0.09,0,0.135,0.077,0.135,0.231s-0.045,0.231-0.135,0.231
			c-0.47,0.056-0.829,0.13-1.075,0.223c-0.246,0.093-0.417,0.217-0.512,0.374c-0.095,0.157-0.143,0.435-0.143,0.833v7.911
			c0,0.387,0.047,0.659,0.143,0.819s0.265,0.286,0.508,0.379c0.244,0.092,0.601,0.166,1.071,0.223
			C117.75,117.015,117.798,117.09,117.798,117.231z"/>
		<path fill="#7F8C8D" d="M130.734,108.545c0,0.106-0.101,0.16-0.302,0.16c-0.09,0-0.146-0.04-0.168-0.118
			c-0.241-0.79-0.585-1.348-1.033-1.676c-0.448-0.328-1.112-0.492-1.991-0.492h-0.79c-0.274,0-0.462,0.045-0.562,0.134
			c-0.101,0.09-0.151,0.258-0.151,0.504v8.526c0,0.387,0.049,0.659,0.147,0.818c0.098,0.16,0.271,0.286,0.521,0.379
			c0.249,0.092,0.606,0.166,1.071,0.223c0.089,0.011,0.134,0.086,0.134,0.227c0,0.156-0.045,0.234-0.134,0.234
			c-0.375,0-0.823-0.016-1.344-0.05c-0.494-0.034-0.907-0.05-1.239-0.05c-0.343,0-0.765,0.016-1.264,0.05
			c-0.521,0.034-0.969,0.05-1.344,0.05c-0.09,0-0.135-0.078-0.135-0.234c0-0.141,0.045-0.216,0.135-0.227
			c0.677-0.078,1.138-0.205,1.381-0.379c0.244-0.173,0.366-0.52,0.366-1.041v-8.526c0-0.247-0.05-0.415-0.151-0.504
			c-0.101-0.089-0.291-0.134-0.571-0.134h-0.655c-0.79,0-1.506,0.2-2.15,0.601s-1.064,0.92-1.26,1.558
			c-0.028,0.084-0.09,0.126-0.185,0.126c-0.191,0-0.286-0.062-0.286-0.185c0.313-0.846,0.61-1.803,0.89-2.873
			c0.762,0.157,2.505,0.235,5.229,0.235c2.796,0,4.576-0.078,5.338-0.235C130.308,106.375,130.476,107.341,130.734,108.545z"/>
		<path fill="#7F8C8D" d="M137.168,117.231c0,0.156-0.045,0.234-0.135,0.234c-0.375,0-0.82-0.016-1.335-0.05
			c-0.493-0.034-0.91-0.05-1.251-0.05c-0.342,0-0.759,0.016-1.251,0.05c-0.521,0.034-0.972,0.05-1.353,0.05
			c-0.09,0-0.134-0.078-0.134-0.234c0-0.141,0.044-0.216,0.134-0.227c0.677-0.078,1.138-0.205,1.382-0.379s0.365-0.521,0.365-1.042
			v-7.911c0-0.393-0.049-0.668-0.147-0.828s-0.27-0.286-0.517-0.378c-0.247-0.092-0.608-0.167-1.083-0.223
			c-0.09,0-0.134-0.077-0.134-0.231s0.044-0.231,0.134-0.231c0.381,0,0.832,0.017,1.353,0.05c0.493,0.034,0.91,0.05,1.251,0.05
			c0.341,0,0.759-0.017,1.251-0.05c0.515-0.034,0.96-0.05,1.335-0.05c0.09,0,0.135,0.077,0.135,0.231s-0.045,0.231-0.135,0.231
			c-0.47,0.056-0.829,0.13-1.075,0.223c-0.246,0.093-0.417,0.217-0.512,0.374c-0.095,0.157-0.143,0.435-0.143,0.833v7.911
			c0,0.387,0.047,0.659,0.143,0.819s0.265,0.286,0.508,0.379c0.244,0.092,0.601,0.166,1.071,0.223
			C137.12,117.015,137.168,117.09,137.168,117.231z"/>
		<path fill="#7F8C8D" d="M150.045,114.358c-0.202,0.896-0.398,1.848-0.588,2.855c-0.319,0-0.898,0.076-1.739,0.228
			c-1.075,0.196-1.87,0.294-2.385,0.294c-1.277,0-2.397-0.252-3.36-0.756c-0.963-0.504-1.713-1.225-2.251-2.163
			s-0.807-1.981-0.807-3.129c0-1.131,0.284-2.174,0.853-3.129c0.568-0.955,1.351-1.698,2.348-2.23
			c0.997-0.532,2.12-0.798,3.368-0.798c0.526,0,1.232,0.056,2.117,0.168c0.689,0.089,1.19,0.134,1.504,0.134
			c0.073,0.784,0.202,1.736,0.386,2.856c0,0.09-0.089,0.134-0.269,0.134c-0.112,0-0.18-0.044-0.202-0.134
			c-0.202-0.761-0.636-1.389-1.302-1.881s-1.434-0.739-2.301-0.739c-1.316,0-2.421,0.543-3.314,1.629
			c-0.894,1.086-1.34,2.417-1.34,3.99c0,1.528,0.442,2.829,1.327,3.901s1.966,1.609,3.243,1.609c1.999,0,3.416-0.947,4.25-2.84
			c0.039-0.09,0.115-0.135,0.227-0.135C149.967,114.223,150.045,114.268,150.045,114.358z"/>
		<path fill="#7F8C8D" d="M158.403,114.089c0,1.114-0.331,2.001-0.992,2.659c-0.662,0.657-1.556,0.986-2.683,0.986
			c-0.499,0-1.096-0.09-1.792-0.27c-0.633-0.168-1.152-0.252-1.556-0.252c-0.034-0.951-0.101-1.903-0.202-2.855
			c0-0.09,0.084-0.135,0.252-0.135c0.118,0,0.19,0.045,0.218,0.135c0.303,1.041,0.69,1.775,1.161,2.201
			c0.471,0.426,1.132,0.639,1.982,0.639c0.677,0,1.201-0.196,1.573-0.588c0.372-0.393,0.559-0.941,0.559-1.646
			c0-0.454-0.163-0.875-0.487-1.265s-1.017-0.892-2.075-1.508c-1.215-0.7-2.011-1.293-2.386-1.781
			c-0.375-0.487-0.563-1.028-0.563-1.621c0-0.913,0.338-1.685,1.014-2.314s1.532-0.945,2.57-0.945c0.392,0,0.844,0.053,1.354,0.16
			c0.477,0.095,0.889,0.143,1.236,0.143c0.067,0.986,0.157,1.854,0.269,2.604c0,0.09-0.073,0.134-0.218,0.134
			c-0.157,0-0.244-0.044-0.26-0.134c-0.186-0.84-0.466-1.445-0.842-1.814s-0.896-0.554-1.56-0.554c-0.63,0-1.131,0.185-1.502,0.554
			c-0.372,0.37-0.557,0.868-0.557,1.495c0,0.398,0.156,0.777,0.467,1.138c0.312,0.361,0.987,0.844,2.026,1.449
			c1.23,0.717,2.037,1.316,2.418,1.797C158.212,112.983,158.403,113.512,158.403,114.089z"/>
		<path fill="#7F8C8D" d="M172.92,114.089c0,1.114-0.331,2.001-0.992,2.659c-0.662,0.657-1.556,0.986-2.683,0.986
			c-0.499,0-1.096-0.09-1.792-0.27c-0.633-0.168-1.152-0.252-1.556-0.252c-0.034-0.951-0.101-1.903-0.202-2.855
			c0-0.09,0.084-0.135,0.252-0.135c0.118,0,0.19,0.045,0.218,0.135c0.303,1.041,0.69,1.775,1.161,2.201
			c0.471,0.426,1.132,0.639,1.982,0.639c0.677,0,1.201-0.196,1.573-0.588c0.372-0.393,0.559-0.941,0.559-1.646
			c0-0.454-0.163-0.875-0.487-1.265s-1.017-0.892-2.075-1.508c-1.215-0.7-2.011-1.293-2.386-1.781
			c-0.375-0.487-0.563-1.028-0.563-1.621c0-0.913,0.338-1.685,1.014-2.314s1.532-0.945,2.57-0.945c0.392,0,0.844,0.053,1.354,0.16
			c0.477,0.095,0.889,0.143,1.236,0.143c0.067,0.986,0.157,1.854,0.269,2.604c0,0.09-0.073,0.134-0.218,0.134
			c-0.157,0-0.244-0.044-0.26-0.134c-0.186-0.84-0.466-1.445-0.842-1.814s-0.896-0.554-1.56-0.554c-0.63,0-1.131,0.185-1.502,0.554
			c-0.372,0.37-0.557,0.868-0.557,1.495c0,0.398,0.156,0.777,0.467,1.138c0.312,0.361,0.987,0.844,2.026,1.449
			c1.23,0.717,2.037,1.316,2.418,1.797C172.729,112.983,172.92,113.512,172.92,114.089z"/>
		<path fill="#7F8C8D" d="M184.268,114.694c-0.454,0.969-0.823,1.893-1.109,2.771c-2.111-0.066-3.615-0.1-4.511-0.1
			c-0.885,0-2.386,0.033-4.502,0.1c-0.09,0-0.134-0.078-0.134-0.234c0-0.141,0.044-0.216,0.134-0.227
			c0.465-0.057,0.82-0.131,1.067-0.223c0.246-0.093,0.418-0.217,0.517-0.375c0.098-0.156,0.147-0.432,0.147-0.823v-7.911
			c0-0.387-0.046-0.66-0.139-0.82s-0.262-0.287-0.508-0.382s-0.607-0.171-1.083-0.227c-0.09,0-0.134-0.077-0.134-0.231
			s0.044-0.231,0.134-0.231c1.411,0.067,2.856,0.101,4.334,0.101c1.489,0,2.937-0.034,4.343-0.101
			c0.129,0.868,0.316,1.725,0.563,2.57c0,0.112-0.098,0.168-0.294,0.168c-0.095,0-0.154-0.039-0.176-0.118
			c-0.415-1.321-1.299-1.982-2.654-1.982h-1.697c-0.65,0-0.975,0.336-0.975,1.008v3.738h2.117c0.563,0,0.944-0.129,1.144-0.386
			c0.2-0.258,0.339-0.714,0.418-1.369c0-0.09,0.077-0.135,0.231-0.135c0.154,0,0.231,0.045,0.231,0.135
			c0,0.28-0.017,0.633-0.051,1.058c-0.034,0.409-0.05,0.742-0.05,1c0,0.264,0.017,0.6,0.05,1.008
			c0.034,0.437,0.051,0.795,0.051,1.075c0,0.09-0.077,0.135-0.231,0.135c-0.154,0-0.231-0.045-0.231-0.135
			c-0.084-0.683-0.232-1.162-0.443-1.436c-0.211-0.274-0.584-0.412-1.119-0.412h-2.117v4.133c0,0.66,0.325,0.991,0.975,0.991h1.831
			c0.667,0,1.327-0.217,1.982-0.651c0.655-0.434,1.137-0.976,1.445-1.625c0.022-0.051,0.07-0.076,0.143-0.076
			c0.078,0,0.148,0.021,0.21,0.063C184.238,114.58,184.268,114.632,184.268,114.694z"/>
		<path fill="#7F8C8D" d="M196.632,117.231c0,0.156-0.044,0.234-0.134,0.234c-0.207,0-0.546-0.02-1.017-0.059
			c-0.342-0.027-0.568-0.041-0.681-0.041c-0.162,0-0.417,0.016-0.764,0.05c-0.348,0.034-0.603,0.05-0.765,0.05l-2.545-4.143
			c-0.359-0.574-0.648-0.942-0.87-1.105s-0.665-0.245-1.332-0.245v3.612c0,0.387,0.049,0.659,0.147,0.818
			c0.098,0.16,0.272,0.286,0.521,0.379c0.249,0.092,0.606,0.166,1.071,0.223c0.095,0.011,0.143,0.086,0.143,0.227
			c0,0.156-0.045,0.234-0.134,0.234c-0.375,0-0.823-0.016-1.344-0.05c-0.499-0.034-0.918-0.05-1.26-0.05
			c-0.342,0-0.759,0.016-1.252,0.05c-0.515,0.034-0.96,0.05-1.335,0.05c-0.09,0-0.134-0.078-0.134-0.234
			c0-0.141,0.044-0.216,0.134-0.227c0.465-0.057,0.82-0.131,1.067-0.223c0.246-0.093,0.418-0.217,0.517-0.375
			c0.098-0.156,0.147-0.432,0.147-0.823v-7.911c0-0.387-0.046-0.66-0.139-0.82s-0.262-0.287-0.508-0.382s-0.607-0.171-1.083-0.227
			c-0.09,0-0.134-0.077-0.134-0.231s0.044-0.231,0.134-0.231c0.375,0,0.82,0.017,1.335,0.05c0.493,0.034,0.91,0.05,1.252,0.05
			c0.341,0,0.761-0.017,1.26-0.05c0.521-0.034,0.969-0.05,1.344-0.05c1.249,0,2.214,0.261,2.898,0.784
			c0.683,0.522,1.024,1.257,1.024,2.202c0,0.597-0.226,1.151-0.677,1.663c-0.452,0.511-1.062,0.905-1.831,1.182l2.587,4.212
			c0.225,0.368,0.514,0.64,0.867,0.815s0.811,0.297,1.372,0.364C196.593,117.015,196.632,117.09,196.632,117.231z M192.349,108.805
			c0-1.641-0.714-2.461-2.142-2.461c-0.47,0-0.828,0.038-1.071,0.114c-0.244,0.076-0.406,0.195-0.487,0.358
			c-0.082,0.163-0.122,0.45-0.122,0.86v3.75c0.325,0.045,0.734,0.067,1.227,0.067c0.901,0,1.56-0.213,1.974-0.641
			C192.141,110.426,192.349,109.743,192.349,108.805z"/>
		<path fill="#7F8C8D" d="M203.194,117.231c0,0.156-0.045,0.234-0.135,0.234c-0.375,0-0.82-0.016-1.336-0.05
			c-0.492-0.034-0.91-0.05-1.251-0.05c-0.342,0-0.759,0.016-1.252,0.05c-0.521,0.034-0.972,0.05-1.353,0.05
			c-0.09,0-0.134-0.078-0.134-0.234c0-0.141,0.044-0.216,0.134-0.227c0.678-0.078,1.139-0.205,1.382-0.379
			c0.244-0.174,0.365-0.521,0.365-1.042v-7.911c0-0.393-0.049-0.668-0.146-0.828c-0.099-0.16-0.271-0.286-0.517-0.378
			c-0.247-0.092-0.608-0.167-1.084-0.223c-0.09,0-0.134-0.077-0.134-0.231s0.044-0.231,0.134-0.231c0.381,0,0.832,0.017,1.353,0.05
			c0.493,0.034,0.91,0.05,1.252,0.05c0.341,0,0.759-0.017,1.251-0.05c0.516-0.034,0.961-0.05,1.336-0.05
			c0.09,0,0.135,0.077,0.135,0.231s-0.045,0.231-0.135,0.231c-0.471,0.056-0.829,0.13-1.075,0.223
			c-0.246,0.093-0.417,0.217-0.513,0.374c-0.095,0.157-0.143,0.435-0.143,0.833v7.911c0,0.387,0.048,0.659,0.143,0.819
			c0.096,0.16,0.265,0.286,0.509,0.379c0.243,0.092,0.601,0.166,1.07,0.223C203.146,117.015,203.194,117.09,203.194,117.231z"/>
		<path fill="#7F8C8D" d="M217.314,111.687c0,1.774-0.571,3.228-1.714,4.354c-1.143,1.129-2.635,1.693-4.478,1.693
			s-3.333-0.564-4.473-1.693c-1.14-1.127-1.71-2.58-1.71-4.354c0-1.781,0.574-3.252,1.723-4.415c1.147-1.162,2.635-1.743,4.46-1.743
			c1.831,0,3.321,0.581,4.469,1.743C216.74,108.434,217.314,109.906,217.314,111.687z M215.465,111.687
			c0-1.652-0.398-3.002-1.197-4.049c-0.798-1.047-1.847-1.571-3.146-1.571c-1.305,0-2.354,0.523-3.146,1.571
			c-0.793,1.047-1.188,2.397-1.188,4.049c0,1.641,0.394,2.97,1.18,3.985c0.787,1.017,1.839,1.525,3.154,1.525
			c1.311,0,2.362-0.509,3.154-1.525C215.069,114.656,215.465,113.327,215.465,111.687z"/>
		<path fill="#7F8C8D" d="M230.997,106.012c0,0.154-0.045,0.231-0.135,0.231c-0.706,0.09-1.179,0.22-1.42,0.391
			c-0.24,0.171-0.361,0.517-0.361,1.038v5.271c0,1.497-0.36,2.668-1.082,3.518s-1.74,1.273-3.055,1.273
			c-1.5,0-2.669-0.404-3.508-1.215c-0.84-0.81-1.259-1.912-1.259-3.308v-5.54c0-0.387-0.047-0.66-0.139-0.82
			c-0.093-0.16-0.262-0.287-0.509-0.382c-0.246-0.095-0.607-0.171-1.083-0.227c-0.09,0-0.135-0.077-0.135-0.231
			s0.045-0.231,0.135-0.231c0.375,0,0.82,0.017,1.335,0.05c0.493,0.034,0.91,0.05,1.252,0.05s0.762-0.017,1.26-0.05
			c0.521-0.034,0.969-0.05,1.345-0.05c0.089,0,0.134,0.077,0.134,0.231s-0.045,0.231-0.134,0.231
			c-0.477,0.056-0.838,0.13-1.084,0.223c-0.247,0.093-0.419,0.219-0.517,0.378s-0.147,0.436-0.147,0.828v5.304
			c0,1.379,0.261,2.391,0.781,3.035c0.521,0.645,1.369,0.967,2.546,0.967c2.212,0,3.317-1.401,3.317-4.204v-5.103
			c0-0.521-0.124-0.87-0.374-1.046c-0.249-0.177-0.718-0.304-1.406-0.383c-0.09,0-0.135-0.077-0.135-0.231s0.045-0.231,0.134-0.231
			c0.257,0,0.595,0.017,1.013,0.05c0.43,0.034,0.779,0.05,1.047,0.05c0.269,0,0.604-0.017,1.007-0.05
			c0.415-0.034,0.762-0.05,1.042-0.05C230.952,105.781,230.997,105.859,230.997,106.012z"/>
		<path fill="#7F8C8D" d="M239.111,114.089c0,1.114-0.33,2.001-0.992,2.659c-0.661,0.657-1.556,0.986-2.683,0.986
			c-0.499,0-1.096-0.09-1.791-0.27c-0.634-0.168-1.152-0.252-1.556-0.252c-0.034-0.951-0.102-1.903-0.202-2.855
			c0-0.09,0.084-0.135,0.252-0.135c0.118,0,0.19,0.045,0.219,0.135c0.303,1.041,0.689,1.775,1.161,2.201
			c0.471,0.426,1.132,0.639,1.982,0.639c0.677,0,1.201-0.196,1.573-0.588c0.372-0.393,0.559-0.941,0.559-1.646
			c0-0.454-0.163-0.875-0.487-1.265c-0.325-0.39-1.017-0.892-2.075-1.508c-1.215-0.7-2.011-1.293-2.386-1.781
			s-0.562-1.028-0.562-1.621c0-0.913,0.338-1.685,1.014-2.314s1.532-0.945,2.569-0.945c0.393,0,0.844,0.053,1.354,0.16
			c0.477,0.095,0.889,0.143,1.236,0.143c0.067,0.986,0.156,1.854,0.269,2.604c0,0.09-0.072,0.134-0.218,0.134
			c-0.157,0-0.244-0.044-0.261-0.134c-0.186-0.84-0.466-1.445-0.842-1.814s-0.896-0.554-1.56-0.554c-0.63,0-1.131,0.185-1.502,0.554
			s-0.557,0.868-0.557,1.495c0,0.398,0.155,0.777,0.467,1.138c0.312,0.361,0.987,0.844,2.026,1.449
			c1.23,0.717,2.037,1.316,2.419,1.797C238.92,112.983,239.111,113.512,239.111,114.089z"/>
		<path fill="#7F8C8D" d="M250.038,114.375c-0.263,0.984-0.47,2.016-0.621,3.09c-2.146-0.066-3.671-0.1-4.578-0.1
			c-0.896,0-2.402,0.033-4.52,0.1c-0.089,0-0.134-0.078-0.134-0.234c0-0.141,0.045-0.216,0.134-0.227
			c0.678-0.078,1.139-0.205,1.382-0.379c0.244-0.174,0.365-0.521,0.365-1.042v-7.911c0-0.393-0.049-0.668-0.146-0.828
			s-0.271-0.286-0.517-0.378c-0.246-0.092-0.607-0.167-1.084-0.223c-0.089,0-0.134-0.077-0.134-0.231s0.045-0.231,0.134-0.231
			c0.375,0,0.823,0.017,1.345,0.05c0.498,0.034,0.918,0.05,1.26,0.05s0.759-0.017,1.251-0.05c0.516-0.034,0.961-0.05,1.336-0.05
			c0.09,0,0.135,0.077,0.135,0.231s-0.045,0.231-0.135,0.231c-0.471,0.056-0.829,0.13-1.075,0.223
			c-0.246,0.093-0.417,0.217-0.513,0.374c-0.095,0.157-0.143,0.435-0.143,0.833v8.163c0,0.661,0.325,0.992,0.975,0.992h1.663
			c0.688,0,1.271-0.184,1.747-0.55c0.477-0.367,0.946-1.052,1.411-2.055c0.022-0.045,0.076-0.066,0.16-0.066
			c0.072,0,0.141,0.021,0.205,0.066S250.038,114.319,250.038,114.375z"/>
		<path fill="#7F8C8D" d="M261.522,106.012c0,0.061-0.02,0.114-0.059,0.161c-0.039,0.047-0.081,0.07-0.126,0.07
			c-0.554,0.062-0.973,0.177-1.256,0.347c-0.282,0.169-0.617,0.535-1.004,1.098l-3.142,4.519v3.377c0,0.381,0.032,0.649,0.097,0.807
			c0.064,0.156,0.213,0.284,0.445,0.382c0.232,0.099,0.587,0.175,1.062,0.231c0.09,0.011,0.135,0.086,0.135,0.227
			c0,0.156-0.045,0.234-0.135,0.234c-0.375,0-0.798-0.016-1.269-0.05c-0.454-0.034-0.854-0.05-1.196-0.05
			c-0.338,0-0.754,0.016-1.248,0.05c-0.521,0.034-0.969,0.05-1.344,0.05c-0.09,0-0.134-0.078-0.134-0.234
			c0-0.141,0.044-0.216,0.134-0.227c0.678-0.078,1.139-0.205,1.382-0.379c0.244-0.173,0.365-0.52,0.365-1.041v-3.343l-2.906-4.561
			c-0.397-0.563-0.747-0.93-1.05-1.099s-0.709-0.281-1.218-0.338c-0.09,0-0.135-0.077-0.135-0.231s0.045-0.231,0.134-0.231
			c0.264,0,0.621,0.017,1.074,0.05c0.492,0.034,0.889,0.05,1.191,0.05c0.284,0,0.679-0.017,1.182-0.05
			c0.588-0.034,1.077-0.05,1.47-0.05c0.089,0,0.134,0.077,0.134,0.231s-0.045,0.231-0.134,0.231
			c-0.728,0.102-1.092,0.294-1.092,0.576c0,0.226,0.114,0.517,0.344,0.873l2.432,3.785l2.538-3.798
			c0.179-0.265,0.269-0.496,0.269-0.692c0-0.214-0.1-0.376-0.298-0.485c-0.199-0.11-0.536-0.196-1.013-0.258
			c-0.067,0-0.101-0.077-0.101-0.231s0.045-0.231,0.135-0.231c0.33,0,0.733,0.017,1.209,0.05c0.465,0.034,0.852,0.05,1.16,0.05
			c0.285,0,0.588-0.017,0.907-0.05c0.325-0.034,0.634-0.05,0.925-0.05C261.478,105.781,261.522,105.859,261.522,106.012z"/>
	</g>
	<g>
		<path fill="#2C3E50" d="M54.153,85.91V27.351h6.697v52.352h11.025v6.207H54.153z"/>
		<path fill="#2C3E50" d="M75.836,75.538V37.724c0-7.242,3.621-10.863,10.863-10.863h2.49c7.242,0,10.876,3.621,10.903,10.863
			v37.814c0,7.242-3.634,10.863-10.903,10.863h-2.49C79.457,86.401,75.836,82.78,75.836,75.538z M82.533,75.947
			c0,2.967,1.471,4.451,4.41,4.451h2.001c2.968,0,4.451-1.484,4.451-4.451V37.479c0-2.94-1.456-4.411-4.369-4.411
			c-0.027,0-0.055,0-0.082,0h-2.001c-2.967,0-4.438,1.47-4.41,4.411V75.947z"/>
		<path fill="#2C3E50" d="M116.02,75.701V63.409h6.493v12.537c0,2.967,1.483,4.451,4.451,4.451h1.347
			c2.968,0,4.438-1.485,4.411-4.455v-8.788c0-1.443-0.252-2.554-0.756-3.331c-0.504-0.776-1.219-1.533-2.144-2.269l-8.208-5.926
			c-2.179-1.553-3.655-3.159-4.431-4.818c-0.776-1.659-1.164-3.686-1.164-6.08v-7.018c0-7.235,3.614-10.853,10.843-10.853h1.672
			c7.12,0,10.68,3.567,10.68,10.699v10.536h-6.492v-10.81c0-2.948-1.443-4.422-4.329-4.422c-0.027,0-0.055,0-0.082,0h-1.184
			c-2.968,0-4.438,1.472-4.41,4.414v7.357c0,1.445,0.258,2.562,0.775,3.352c0.517,0.79,1.252,1.553,2.205,2.288l8.119,5.845
			c2.11,1.553,3.564,3.126,4.363,4.72s1.198,3.644,1.198,6.15v8.541c0,7.247-3.615,10.87-10.844,10.87H126.7
			C119.579,86.401,116.02,82.834,116.02,75.701z"/>
		<path fill="#2C3E50" d="M145.34,85.91V27.351h11.516c7.241,0,10.876,3.627,10.903,10.879v14.75
			c0,7.226-3.635,10.838-10.903,10.838h-4.818V85.91H145.34z M152.037,57.815h4.573c2.967,0,4.451-1.479,4.451-4.437V37.954
			c0-2.93-1.457-4.396-4.369-4.396c-0.028,0-0.056,0-0.082,0h-4.573V57.815z"/>
		<path fill="#2C3E50" d="M169.311,85.91l9.058-58.723h8.551l9.058,58.723h-6.697l-1.38-9.801h-10.788l-1.309,9.801H169.311z
			 M177.961,70.107h9.094L182.5,37.724L177.961,70.107z"/>
		<path fill="#2C3E50" d="M199.121,85.91v-6.207l13.558-46.145H199.53v-6.207h19.847v6.207l-13.558,46.145h13.558v6.207H199.121z"/>
		<path fill="#2C3E50" d="M224.358,85.91V27.351h6.697V85.91H224.358z"/>
		<path fill="#2C3E50" d="M237.302,75.538V37.724c0-7.242,3.621-10.863,10.863-10.863h2.49c7.242,0,10.876,3.621,10.903,10.863
			v37.814c0,7.242-3.634,10.863-10.903,10.863h-2.49C240.923,86.401,237.302,82.78,237.302,75.538z M243.999,75.947
			c0,2.967,1.471,4.451,4.41,4.451h2.001c2.968,0,4.451-1.484,4.451-4.451V37.479c0-2.94-1.456-4.411-4.369-4.411
			c-0.027,0-0.055,0-0.082,0h-2.001c-2.967,0-4.438,1.47-4.41,4.411V75.947z"/>
		<path fill="#2C3E50" d="M54.153,186.27v-58.56h11.025c8.63,0,12.959,4.329,12.986,12.985v32.629
			c0,8.631-4.329,12.945-12.986,12.945H54.153z M60.85,180.063h4.002c4.41,0,6.615-2.238,6.615-6.715v-32.676
			c0-4.503-2.205-6.755-6.615-6.755H60.85V180.063z"/>
		<path fill="#2C3E50" d="M84.33,186.27v-58.56h18.376v6.207H91.028v19.315h11.271v6.207H91.028v20.623h11.842v6.207H84.33z"/>
		<path fill="#2C3E50" d="M108.383,186.27v-58.56h6.697v52.353h11.025v6.207H108.383z"/>
		<path fill="#2C3E50" d="M131.047,186.27v-58.56h6.697v52.353h11.025v6.207H131.047z"/>
		<path fill="#2C3E50" d="M151.139,186.27l9.058-58.723h8.551l9.058,58.723h-6.697l-1.38-9.801H158.94l-1.309,9.801H151.139z
			 M159.789,170.465h9.094l-4.555-32.383L159.789,170.465z"/>
		<path fill="#2C3E50" d="M192.301,186.27v-58.56h11.516c7.241,0,10.876,3.627,10.903,10.879v14.749
			c0,7.227-3.635,10.839-10.903,10.839h-4.818v22.093H192.301z M198.998,158.174h4.573c2.967,0,4.451-1.479,4.451-4.437v-15.425
			c0-2.93-1.457-4.396-4.369-4.396c-0.028,0-0.056,0-0.082,0h-4.573V158.174z"/>
		<path fill="#2C3E50" d="M219.947,175.897v-37.814c0-7.241,3.621-10.862,10.863-10.862h2.49c7.242,0,10.876,3.621,10.903,10.862
			v37.814c0,7.242-3.634,10.863-10.903,10.863h-2.49C223.568,186.76,219.947,183.139,219.947,175.897z M226.644,176.305
			c0,2.968,1.471,4.451,4.41,4.451h2.001c2.968,0,4.451-1.483,4.451-4.451v-38.467c0-2.941-1.456-4.411-4.369-4.411
			c-0.027,0-0.055,0-0.082,0h-2.001c-2.967,0-4.438,1.47-4.41,4.411V176.305z"/>
		<path fill="#2C3E50" d="M250.37,186.27v-58.56h6.697v52.353h11.025v6.207H250.37z"/>
		<path fill="#2C3E50" d="M273.115,186.27v-58.56h6.697v58.56H273.115z"/>
		<path fill="#2C3E50" d="M283.897,133.917v-6.207h24.216v6.207h-8.738v52.353h-6.697v-52.353H283.897z"/>
		<path fill="#2C3E50" d="M312.196,186.27v-58.56h6.697v58.56H312.196z"/>
		<path fill="#2C3E50" d="M325.141,175.897v-37.814c0-7.241,3.621-10.862,10.863-10.862h2.164c7.132,0,10.699,3.567,10.699,10.699
			v10.536h-6.493v-10.642c0-2.924-1.457-4.387-4.369-4.387c-0.028,0-0.056,0-0.082,0h-1.675c-2.967,0-4.438,1.47-4.41,4.411v38.467
			c0,2.968,1.471,4.451,4.41,4.451h1.838c2.967,0,4.451-1.49,4.451-4.473v-12.516h6.493v12.129c0,7.242-3.621,10.863-10.862,10.863
			h-2.164C328.762,186.76,325.141,183.139,325.141,175.897z"/>
		<path fill="#2C3E50" d="M352.706,186.27l9.058-58.723h8.551l9.058,58.723h-6.697l-1.38-9.801h-10.788l-1.309,9.801H352.706z
			 M361.357,170.465h9.094l-4.555-32.383L361.357,170.465z"/>
	</g>
</g>
</svg>
